BIOST 561: Homework 2 • UWBiost561
…
country_population <- readr::read_csv("https://raw.githubusercontent.com/linnykos/561_s2025_public/main/HW2_files/country_population.csv")
#> Rows: 13545 Columns: 4
#> ── Column specification ────────────────────────────────────────────────────────
#> Delimiter: ","
#> chr (2): iso3c, country
#> dbl (2): year, population
#> 
#> ℹ Use `spec()` to retrieve the full column specification for this data.
#> ℹ Specify the column types or set `show_col_types = FALSE` to quiet this message.
country_population
#> # A tibble: 13,545 × 4
#>    iso3c country  year population
#>    <chr> <chr>   <dbl>      <dbl>
#>  1 ABW   Aruba    1960      54608
#>  2 ABW   Aruba    1961      55811
#>  3 ABW   Aruba    1962      56682
#>  4 ABW   Aruba    1963      57475
#>  5 ABW   Aruba    1964      58178
#>  6 ABW   Aruba    1965      58782
#>  7 ABW   Aruba    1966      59291
#>  8 ABW   Aruba    1967      59522
#>  9 ABW   Aruba    1968      59471
#> 10 ABW   Aruba    1969      59330
#> # ℹ 13,535 more rows
…
The next dataset is from https://paldhous.github.io/NICAR/2017/r-analysis.html,
and has also been formatted specifically for this homework. It can be
loaded in the following code:

country_birth <- readr::read_csv("https://raw.githubusercontent.com/linnykos/561_s2025_public/main/HW2_files/country_birth.csv")
#> Rows: 5486 Columns: 5
#> ── Column specification ────────────────────────────────────────────────────────
#> Delimiter: ","
#> chr (1): iso3c
#> dbl (4): year, life_expect, birth_rate, neonat_mortal_rate
#> 
#> ℹ Use `spec()` to retrieve the full column specification for this data.
#> ℹ Specify the column types or set `show_col_types = FALSE` to quiet this message.
country_birth
#> # A tibble: 5,486 × 5
#>    iso3c  year life_expect birth_rate neonat_mortal_rate
#>    <chr> <dbl>       <dbl>      <dbl>              <dbl>
#>  1 AND    1994          NA       10.9                3.2
#>  2 AND    1995          NA       11                  3  
#>  3 AND    2006          NA       10.6                1.9
#>  4 AND    2007          NA       10.1                1.8
#>  5 AND    1996          NA       10.9                2.8
#>  6 AND    1993          NA       11.4                3.4
#>  7 AND    1997          NA       11.2                2.6
#>  8 AND    1998          NA       11.9                2.4
#>  9 AND    2008          NA       10.4                1.8
#> 10 AND    2009          NA        9.9                1.7
#> # ℹ 5,476 more rows
…
Figure @ref(fig:population) shows the first two rows of your desired
output.

pop1 = filter(country_population, year %in% c(1990:2010)) %>% 
  group_by(iso3c,country) %>% 
  summarize(
    mean_population = mean(population, na.rm = T)
  )
#> `summarise()` has grouped output by 'iso3c'. You can override using the
#> `.groups` argument.
pop1
#> # A tibble: 215 × 3
#> # Groups:   iso3c [215]
#>    iso3c country              mean_population
#>    <chr> <chr>                          <dbl>
#>  1 ABW   Aruba                         85839.
#>  2 AFG   Afghanistan                19819866.
#>  3 AGO   Angola                     16829911.
#>  4 ALB   Albania                     3095489.
#>  5 AND   Andorra                       67825.
#>  6 ARE   United Arab Emirates        3858774.
#>  7 ARG   Argentina                  36972314.
#>  8 ARM   Armenia                     3211816.
#>  9 ASM   American Samoa                54995.
#> 10 ATG   Antigua and Barbuda           74385.
#> # ℹ 205 more rows
…
birth1 = filter(country_birth, year %in% c(1990:2010)) %>% 
  select(iso3c, year, life_expect) %>% 
  filter(!is.na(iso3c),!is.na(year),!is.na(life_expect)) %>% 
  group_by(iso3c) %>% 
  summarize(
    min_life_expect = min(life_expect),
    max_life_expect = max(life_expect)
  ) %>% 
  mutate(
    range_life_expect = max_life_expect - min_life_expect
  )
birth1
#> # A tibble: 203 × 4
#>    iso3c min_life_expect max_life_expect range_life_expect
#>    <chr>           <dbl>           <dbl>             <dbl>
#>  1 ABW              73.4            75.0              1.56
#>  2 AFG              49.9            59.0              9.11
#>  3 AGO              41.1            50.7              9.52
#>  4 ALB              71.9            77.0              5.14
#>  5 ARE              71.7            76.7              4.96
#>  6 ARG              71.5            75.5              3.94
#>  7 ARM              67.7            74.2              6.49
#>  8 ATG              71.2            75.3              4.15
#>  9 AUS              77.0            81.7              4.70
#> 10 AUT              75.6            80.6              5.01
#> # ℹ 193 more rows
…
The output you are trying to reproduce (without the Sample watermark) in
Question 1B.

Question 1C: We will now combine
country_population and country_birth via a
join. Specifically, using an inner_join() function, combine
both these datasets by the iso3c variable, and call the new
tibble object as country_both. Print out the
first 10 rows of country_both. How many rows and columns
are in country_both?

country_both = inner_join(pop1, birth1, by = "iso3c")
country_both
#> # A tibble: 202 × 6
#> # Groups:   iso3c [202]
#>    iso3c country              mean_population min_life_expect max_life_expect
#>    <chr> <chr>                          <dbl>           <dbl>           <dbl>
#>  1 ABW   Aruba                         85839.            73.4            75.0
#>  2 AFG   Afghanistan                19819866.            49.9            59.0
#>  3 AGO   Angola                     16829911.            41.1            50.7
#>  4 ALB   Albania                     3095489.            71.9            77.0
#>  5 ARE   United Arab Emirates        3858774.            71.7            76.7
#>  6 ARG   Argentina                  36972314.            71.5            75.5
#>  7 ARM   Armenia                     3211816.            67.7            74.2
#>  8 ATG   Antigua and Barbuda           74385.            71.2            75.3
#>  9 AUS   Australia                  19200991.            77.0            81.7
#> 10 AUT   Austria                     8057573.            75.6            80.6
#> # ℹ 192 more rows
#> # ℹ 1 more variable: range_life_expect <dbl>
…
For this question, we’ll be using a dataset about the penguins from
the Palmer Archipelago from https://allisonhorst.github.io/palmerpenguins/reference/penguins.html.
We’ve processed it lightly for this homework.

penguins <- readr::read_csv("https://raw.githubusercontent.com/linnykos/561_s2025_public/main/HW2_files/palmerpenguins.csv")
#> Rows: 333 Columns: 8
#> ── Column specification ────────────────────────────────────────────────────────
#> Delimiter: ","
#> chr (3): species, island, sex
#> dbl (5): bill_length_mm, bill_depth_mm, flipper_length_mm, body_mass_g, year
#> 
#> ℹ Use `spec()` to retrieve the full column specification for this data.
#> ℹ Specify the column types or set `show_col_types = FALSE` to quiet this message.
penguins
#> # A tibble: 333 × 8
#>    species island    bill_length_mm bill_depth_mm flipper_length_mm body_mass_g
#>    <chr>   <chr>              <dbl>         <dbl>             <dbl>       <dbl>
#>  1 Adelie  Torgersen           39.1          18.7               181        3750
#>  2 Adelie  Torgersen           39.5          17.4               186        3800
#>  3 Adelie  Torgersen           40.3          18                 195        3250
#>  4 Adelie  Torgersen           36.7          19.3               193        3450
#>  5 Adelie  Torgersen           39.3          20.6               190        3650
#>  6 Adelie  Torgersen           38.9          17.8               181        3625
#>  7 Adelie  Torgersen           39.2          19.6               195        4675
#>  8 Adelie  Torgersen           41.1          17.6               182        3200
#>  9 Adelie  Torgersen           38.6          21.2               191        3800
#> 10 Adelie  Torgersen           34.6          21.1               198        4400
#> # ℹ 323 more rows
#> # ℹ 2 more variables: sex <chr>, year <dbl>
…
Question 3B: You will now write code to
produce a heatmap to visualize adj_mat. Before this can
happen, though, you need one more function to convert
adj_mat into a “long form,” which is a necessity when
visualizing any plot as a heatmap in ggplot. See https://r-graph-gallery.com/heatmap.html.
This is done via the provided pivot_longer_heatmap()
function:

mat_long <- pivot_longer_heatmap(adj_mat)
mat_long
#> # A tibble: 400 × 3
#>        X     Y Value
#>    <int> <dbl> <dbl>
#>  1     1     1     1
#>  2     1     2     0
#>  3     1     3     1
#>  4     1     4     0
#>  5     1     5     0
#>  6     1     6     1
#>  7     1     7     0
#>  8     1     8     0
#>  9     1     9     0
#> 10     1    10     0
#> # ℹ 390 more rows
…
The plot you are trying to reproduce (without the Sample watermark) in
Question 3C.

Question 3D: Congratulations! You have a
working pipeline to visualize any adjacency matrix. For this last
question, we will combine all your functions to visualize the
following:

adj_mat2 <- result$adj_mat[result$rev_order, result$rev_order]

mat_long2 <- pivot_longer_heatmap(adj_mat2)
mat_long2
#> # A tibble: 400 × 3
#>        X     Y Value
#>    <int> <dbl> <dbl>
#>  1     1     1     1
#>  2     1     2     1
#>  3     1     3     1
#>  4     1     4     1
#>  5     1     5     1
#>  6     1     6     1
#>  7     1     7     1
#>  8     1     8     1
#>  9     1     9     1
#> 10     1    10     1
#> # ℹ 390 more rows
…
